tracefile.vcd
$date
     Oct 31, 2023       23:10:28
$end

$version
 SystemC 2.3.3-Accellera --- Mar 17 2022 13:55:26
$end

$timescale
     100 ns
$end

$scope module SystemC $end
$var wire    1  aaaaa  clk       $end
$var wire    1  aaaab  A       $end
$var wire    1  aaaac  B       $end
$var wire    1  aaaad  C       $end
$var wire    1  aaaae  D       $end
$var wire    1  aaaaf  X       $end
$var wire    1  aaaag  Y       $end
$upscope $end
$enddefinitions  $end

$comment
All initial values are dumped below at time 0 sec = 0 timescale units.
$end

$dumpvars
0aaaaa
0aaaab
0aaaac
0aaaad
0aaaae
0aaaaf
0aaaag
$end

#1
1aaaaa

#2
0aaaaa

#3
1aaaaa

#4
0aaaaa

#5
1aaaaa

#6
0aaaaa

#7
1aaaaa

#8
0aaaaa

#9
1aaaaa

#10
0aaaaa

#11
1aaaaa

#12
0aaaaa

#13
1aaaaa

#14
0aaaaa

#15
1aaaaa

#16
0aaaaa

#17
1aaaaa

#18
0aaaaa

#19
1aaaaa

#20
0aaaaa

#21
1aaaaa

#22
0aaaaa

#23
1aaaaa

#24
0aaaaa

#25
1aaaaa

#26
0aaaaa

#27
1aaaaa

#28
0aaaaa

#29
1aaaaa

#30
0aaaaa

#31
1aaaaa

#32
0aaaaa

#33
1aaaaa

#34
0aaaaa

#35
1aaaaa

#36
0aaaaa

#37
1aaaaa

#38
0aaaaa

#39
1aaaaa

#40
0aaaaa

#41
1aaaaa

#42
0aaaaa

#43
1aaaaa

#44
0aaaaa

#45
1aaaaa

#46
0aaaaa

#47
1aaaaa

#48
0aaaaa

#49
1aaaaa

#50
0aaaaa

#51
1aaaaa

#52
0aaaaa

#53
1aaaaa

#54
0aaaaa

#55
1aaaaa

#56
0aaaaa

#57
1aaaaa

#58
0aaaaa

#59
1aaaaa

#60
0aaaaa

#61
1aaaaa

#62
0aaaaa

#63
1aaaaa

#64
0aaaaa

#65
1aaaaa

#66
0aaaaa

#67
1aaaaa

#68
0aaaaa

#69
1aaaaa

#70
0aaaaa

#71
1aaaaa

#72
0aaaaa

#73
1aaaaa

#74
0aaaaa

#75
1aaaaa

#76
0aaaaa

#77
1aaaaa

#78
0aaaaa

#79
1aaaaa

#80
0aaaaa

#81
1aaaaa

#82
0aaaaa

#83
1aaaaa

#84
0aaaaa

#85
1aaaaa

#86
0aaaaa

#87
1aaaaa

#88
0aaaaa

#89
1aaaaa

#90
0aaaaa

#91
1aaaaa

#92
0aaaaa

#93
1aaaaa

#94
0aaaaa

#95
1aaaaa

#96
0aaaaa

#97
1aaaaa

#98
0aaaaa

#99
1aaaaa

#100
0aaaaa
1aaaae

#101
1aaaaa

#102
0aaaaa

#103
1aaaaa

#104
0aaaaa

#105
1aaaaa

#106
0aaaaa

#107
1aaaaa

#108
0aaaaa

#109
1aaaaa

#110
0aaaaa

#111
1aaaaa

#112
0aaaaa

#113
1aaaaa

#114
0aaaaa

#115
1aaaaa

#116
0aaaaa

#117
1aaaaa

#118
0aaaaa

#119
1aaaaa

#120
0aaaaa

#121
1aaaaa

#122
0aaaaa

#123
1aaaaa

#124
0aaaaa

#125
1aaaaa

#126
0aaaaa

#127
1aaaaa

#128
0aaaaa

#129
1aaaaa

#130
0aaaaa

#131
1aaaaa

#132
0aaaaa

#133
1aaaaa

#134
0aaaaa

#135
1aaaaa

#136
0aaaaa

#137
1aaaaa

#138
0aaaaa

#139
1aaaaa

#140
0aaaaa

#141
1aaaaa

#142
0aaaaa

#143
1aaaaa

#144
0aaaaa

#145
1aaaaa

#146
0aaaaa

#147
1aaaaa

#148
0aaaaa

#149
1aaaaa

#150
0aaaaa

#151
1aaaaa

#152
0aaaaa

#153
1aaaaa

#154
0aaaaa

#155
1aaaaa

#156
0aaaaa

#157
1aaaaa

#158
0aaaaa

#159
1aaaaa

#160
0aaaaa

#161
1aaaaa

#162
0aaaaa

#163
1aaaaa

#164
0aaaaa

#165
1aaaaa

#166
0aaaaa

#167
1aaaaa

#168
0aaaaa

#169
1aaaaa

#170
0aaaaa

#171
1aaaaa

#172
0aaaaa

#173
1aaaaa

#174
0aaaaa

#175
1aaaaa

#176
0aaaaa

#177
1aaaaa

#178
0aaaaa

#179
1aaaaa

#180
0aaaaa

#181
1aaaaa

#182
0aaaaa

#183
1aaaaa

#184
0aaaaa

#185
1aaaaa

#186
0aaaaa

#187
1aaaaa

#188
0aaaaa

#189
1aaaaa

#190
0aaaaa

#191
1aaaaa

#192
0aaaaa

#193
1aaaaa

#194
0aaaaa

#195
1aaaaa

#196
0aaaaa

#197
1aaaaa

#198
0aaaaa

#199
1aaaaa

#200
0aaaaa
1aaaad
0aaaae

#201
1aaaaa

#202
0aaaaa

#203
1aaaaa

#204
0aaaaa

#205
1aaaaa

#206
0aaaaa

#207
1aaaaa

#208
0aaaaa

#209
1aaaaa

#210
0aaaaa

#211
1aaaaa

#212
0aaaaa

#213
1aaaaa

#214
0aaaaa

#215
1aaaaa

#216
0aaaaa

#217
1aaaaa

#218
0aaaaa

#219
1aaaaa

#220
0aaaaa

#221
1aaaaa

#222
0aaaaa

#223
1aaaaa

#224
0aaaaa

#225
1aaaaa

#226
0aaaaa

#227
1aaaaa

#228
0aaaaa

#229
1aaaaa

#230
0aaaaa

#231
1aaaaa

#232
0aaaaa

#233
1aaaaa

#234
0aaaaa

#235
1aaaaa

#236
0aaaaa

#237
1aaaaa

#238
0aaaaa

#239
1aaaaa

#240
0aaaaa

#241
1aaaaa

#242
0aaaaa

#243
1aaaaa

#244
0aaaaa

#245
1aaaaa

#246
0aaaaa

#247
1aaaaa

#248
0aaaaa

#249
1aaaaa

#250
0aaaaa

#251
1aaaaa

#252
0aaaaa

#253
1aaaaa

#254
0aaaaa

#255
1aaaaa

#256
0aaaaa

#257
1aaaaa

#258
0aaaaa

#259
1aaaaa

#260
0aaaaa

#261
1aaaaa

#262
0aaaaa

#263
1aaaaa

#264
0aaaaa

#265
1aaaaa

#266
0aaaaa

#267
1aaaaa

#268
0aaaaa

#269
1aaaaa

#270
0aaaaa

#271
1aaaaa

#272
0aaaaa

#273
1aaaaa

#274
0aaaaa

#275
1aaaaa

#276
0aaaaa

#277
1aaaaa

#278
0aaaaa

#279
1aaaaa

#280
0aaaaa

#281
1aaaaa

#282
0aaaaa

#283
1aaaaa

#284
0aaaaa

#285
1aaaaa

#286
0aaaaa

#287
1aaaaa

#288
0aaaaa

#289
1aaaaa

#290
0aaaaa

#291
1aaaaa

#292
0aaaaa

#293
1aaaaa

#294
0aaaaa

#295
1aaaaa

#296
0aaaaa

#297
1aaaaa

#298
0aaaaa

#299
1aaaaa

#300
0aaaaa
1aaaae

#301
1aaaaa

#302
0aaaaa

#303
1aaaaa

#304
0aaaaa

#305
1aaaaa

#306
0aaaaa

#307
1aaaaa

#308
0aaaaa

#309
1aaaaa

#310
0aaaaa

#311
1aaaaa

#312
0aaaaa

#313
1aaaaa

#314
0aaaaa

#315
1aaaaa

#316
0aaaaa

#317
1aaaaa

#318
0aaaaa

#319
1aaaaa

#320
0aaaaa

#321
1aaaaa

#322
0aaaaa

#323
1aaaaa

#324
0aaaaa

#325
1aaaaa

#326
0aaaaa

#327
1aaaaa

#328
0aaaaa

#329
1aaaaa

#330
0aaaaa

#331
1aaaaa

#332
0aaaaa

#333
1aaaaa

#334
0aaaaa

#335
1aaaaa

#336
0aaaaa

#337
1aaaaa

#338
0aaaaa

#339
1aaaaa

#340
0aaaaa

#341
1aaaaa

#342
0aaaaa

#343
1aaaaa

#344
0aaaaa

#345
1aaaaa

#346
0aaaaa

#347
1aaaaa

#348
0aaaaa

#349
1aaaaa

#350
0aaaaa

#351
1aaaaa

#352
0aaaaa

#353
1aaaaa

#354
0aaaaa

#355
1aaaaa

#356
0aaaaa

#357
1aaaaa

#358
0aaaaa

#359
1aaaaa

#360
0aaaaa

#361
1aaaaa

#362
0aaaaa

#363
1aaaaa

#364
0aaaaa

#365
1aaaaa

#366
0aaaaa

#367
1aaaaa

#368
0aaaaa

#369
1aaaaa

#370
0aaaaa

#371
1aaaaa

#372
0aaaaa

#373
1aaaaa

#374
0aaaaa

#375
1aaaaa

#376
0aaaaa

#377
1aaaaa

#378
0aaaaa

#379
1aaaaa

#380
0aaaaa

#381
1aaaaa

#382
0aaaaa

#383
1aaaaa

#384
0aaaaa

#385
1aaaaa

#386
0aaaaa

#387
1aaaaa

#388
0aaaaa

#389
1aaaaa

#390
0aaaaa

#391
1aaaaa

#392
0aaaaa

#393
1aaaaa

#394
0aaaaa

#395
1aaaaa

#396
0aaaaa

#397
1aaaaa

#398
0aaaaa

#399
1aaaaa

#400
0aaaaa
1aaaac
0aaaad
0aaaae
1aaaaf
1aaaag

#401
1aaaaa

#402
0aaaaa

#403
1aaaaa

#404
0aaaaa

#405
1aaaaa

#406
0aaaaa

#407
1aaaaa

#408
0aaaaa

#409
1aaaaa

#410
0aaaaa

#411
1aaaaa

#412
0aaaaa

#413
1aaaaa

#414
0aaaaa

#415
1aaaaa

#416
0aaaaa

#417
1aaaaa

#418
0aaaaa

#419
1aaaaa

#420
0aaaaa

#421
1aaaaa

#422
0aaaaa

#423
1aaaaa

#424
0aaaaa

#425
1aaaaa

#426
0aaaaa

#427
1aaaaa

#428
0aaaaa

#429
1aaaaa

#430
0aaaaa

#431
1aaaaa

#432
0aaaaa

#433
1aaaaa

#434
0aaaaa

#435
1aaaaa

#436
0aaaaa

#437
1aaaaa

#438
0aaaaa

#439
1aaaaa

#440
0aaaaa

#441
1aaaaa

#442
0aaaaa

#443
1aaaaa

#444
0aaaaa

#445
1aaaaa

#446
0aaaaa

#447
1aaaaa

#448
0aaaaa

#449
1aaaaa

#450
0aaaaa

#451
1aaaaa

#452
0aaaaa

#453
1aaaaa

#454
0aaaaa

#455
1aaaaa

#456
0aaaaa

#457
1aaaaa

#458
0aaaaa

#459
1aaaaa

#460
0aaaaa

#461
1aaaaa

#462
0aaaaa

#463
1aaaaa

#464
0aaaaa

#465
1aaaaa

#466
0aaaaa

#467
1aaaaa

#468
0aaaaa

#469
1aaaaa

#470
0aaaaa

#471
1aaaaa

#472
0aaaaa

#473
1aaaaa

#474
0aaaaa

#475
1aaaaa

#476
0aaaaa

#477
1aaaaa

#478
0aaaaa

#479
1aaaaa

#480
0aaaaa

#481
1aaaaa

#482
0aaaaa

#483
1aaaaa

#484
0aaaaa

#485
1aaaaa

#486
0aaaaa

#487
1aaaaa

#488
0aaaaa

#489
1aaaaa

#490
0aaaaa

#491
1aaaaa

#492
0aaaaa

#493
1aaaaa

#494
0aaaaa

#495
1aaaaa

#496
0aaaaa

#497
1aaaaa

#498
0aaaaa

#499
1aaaaa

#500
0aaaaa
1aaaae
0aaaaf
0aaaag

#501
1aaaaa

#502
0aaaaa

#503
1aaaaa

#504
0aaaaa

#505
1aaaaa

#506
0aaaaa

#507
1aaaaa

#508
0aaaaa

#509
1aaaaa

#510
0aaaaa

#511
1aaaaa

#512
0aaaaa

#513
1aaaaa

#514
0aaaaa

#515
1aaaaa

#516
0aaaaa

#517
1aaaaa

#518
0aaaaa

#519
1aaaaa

#520
0aaaaa

#521
1aaaaa

#522
0aaaaa

#523
1aaaaa

#524
0aaaaa

#525
1aaaaa

#526
0aaaaa

#527
1aaaaa

#528
0aaaaa

#529
1aaaaa

#530
0aaaaa

#531
1aaaaa

#532
0aaaaa

#533
1aaaaa

#534
0aaaaa

#535
1aaaaa

#536
0aaaaa

#537
1aaaaa

#538
0aaaaa

#539
1aaaaa

#540
0aaaaa

#541
1aaaaa

#542
0aaaaa

#543
1aaaaa

#544
0aaaaa

#545
1aaaaa

#546
0aaaaa

#547
1aaaaa

#548
0aaaaa

#549
1aaaaa

#550
0aaaaa

#551
1aaaaa

#552
0aaaaa

#553
1aaaaa

#554
0aaaaa

#555
1aaaaa

#556
0aaaaa

#557
1aaaaa

#558
0aaaaa

#559
1aaaaa

#560
0aaaaa

#561
1aaaaa

#562
0aaaaa

#563
1aaaaa

#564
0aaaaa

#565
1aaaaa

#566
0aaaaa

#567
1aaaaa

#568
0aaaaa

#569
1aaaaa

#570
0aaaaa

#571
1aaaaa

#572
0aaaaa

#573
1aaaaa

#574
0aaaaa

#575
1aaaaa

#576
0aaaaa

#577
1aaaaa

#578
0aaaaa

#579
1aaaaa

#580
0aaaaa

#581
1aaaaa

#582
0aaaaa

#583
1aaaaa

#584
0aaaaa

#585
1aaaaa

#586
0aaaaa

#587
1aaaaa

#588
0aaaaa

#589
1aaaaa

#590
0aaaaa

#591
1aaaaa

#592
0aaaaa

#593
1aaaaa

#594
0aaaaa

#595
1aaaaa

#596
0aaaaa

#597
1aaaaa

#598
0aaaaa

#599
1aaaaa

#600
0aaaaa
1aaaad
0aaaae
1aaaaf
1aaaag

#601
1aaaaa

#602
0aaaaa

#603
1aaaaa

#604
0aaaaa

#605
1aaaaa

#606
0aaaaa

#607
1aaaaa

#608
0aaaaa

#609
1aaaaa

#610
0aaaaa

#611
1aaaaa

#612
0aaaaa

#613
1aaaaa

#614
0aaaaa

#615
1aaaaa

#616
0aaaaa

#617
1aaaaa

#618
0aaaaa

#619
1aaaaa

#620
0aaaaa

#621
1aaaaa

#622
0aaaaa

#623
1aaaaa

#624
0aaaaa

#625
1aaaaa

#626
0aaaaa

#627
1aaaaa

#628
0aaaaa

#629
1aaaaa

#630
0aaaaa

#631
1aaaaa

#632
0aaaaa

#633
1aaaaa

#634
0aaaaa

#635
1aaaaa

#636
0aaaaa

#637
1aaaaa

#638
0aaaaa

#639
1aaaaa

#640
0aaaaa

#641
1aaaaa

#642
0aaaaa

#643
1aaaaa

#644
0aaaaa

#645
1aaaaa

#646
0aaaaa

#647
1aaaaa

#648
0aaaaa

#649
1aaaaa

#650
0aaaaa

#651
1aaaaa

#652
0aaaaa

#653
1aaaaa

#654
0aaaaa

#655
1aaaaa

#656
0aaaaa

#657
1aaaaa

#658
0aaaaa

#659
1aaaaa

#660
0aaaaa

#661
1aaaaa

#662
0aaaaa

#663
1aaaaa

#664
0aaaaa

#665
1aaaaa

#666
0aaaaa

#667
1aaaaa

#668
0aaaaa

#669
1aaaaa

#670
0aaaaa

#671
1aaaaa

#672
0aaaaa

#673
1aaaaa

#674
0aaaaa

#675
1aaaaa

#676
0aaaaa

#677
1aaaaa

#678
0aaaaa

#679
1aaaaa

#680
0aaaaa

#681
1aaaaa

#682
0aaaaa

#683
1aaaaa

#684
0aaaaa

#685
1aaaaa

#686
0aaaaa

#687
1aaaaa

#688
0aaaaa

#689
1aaaaa

#690
0aaaaa

#691
1aaaaa

#692
0aaaaa

#693
1aaaaa

#694
0aaaaa

#695
1aaaaa

#696
0aaaaa

#697
1aaaaa

#698
0aaaaa

#699
1aaaaa

#700
0aaaaa
1aaaae
0aaaaf
0aaaag

#701
1aaaaa

#702
0aaaaa

#703
1aaaaa

#704
0aaaaa

#705
1aaaaa

#706
0aaaaa

#707
1aaaaa

#708
0aaaaa

#709
1aaaaa

#710
0aaaaa

#711
1aaaaa

#712
0aaaaa

#713
1aaaaa

#714
0aaaaa

#715
1aaaaa

#716
0aaaaa

#717
1aaaaa

#718
0aaaaa

#719
1aaaaa

#720
0aaaaa

#721
1aaaaa

#722
0aaaaa

#723
1aaaaa

#724
0aaaaa

#725
1aaaaa

#726
0aaaaa

#727
1aaaaa

#728
0aaaaa

#729
1aaaaa

#730
0aaaaa

#731
1aaaaa

#732
0aaaaa

#733
1aaaaa

#734
0aaaaa

#735
1aaaaa

#736
0aaaaa

#737
1aaaaa

#738
0aaaaa

#739
1aaaaa

#740
0aaaaa

#741
1aaaaa

#742
0aaaaa

#743
1aaaaa

#744
0aaaaa

#745
1aaaaa

#746
0aaaaa

#747
1aaaaa

#748
0aaaaa

#749
1aaaaa

#750
0aaaaa

#751
1aaaaa

#752
0aaaaa

#753
1aaaaa

#754
0aaaaa

#755
1aaaaa

#756
0aaaaa

#757
1aaaaa

#758
0aaaaa

#759
1aaaaa

#760
0aaaaa

#761
1aaaaa

#762
0aaaaa

#763
1aaaaa

#764
0aaaaa

#765
1aaaaa

#766
0aaaaa

#767
1aaaaa

#768
0aaaaa

#769
1aaaaa

#770
0aaaaa

#771
1aaaaa

#772
0aaaaa

#773
1aaaaa

#774
0aaaaa

#775
1aaaaa

#776
0aaaaa

#777
1aaaaa

#778
0aaaaa

#779
1aaaaa

#780
0aaaaa

#781
1aaaaa

#782
0aaaaa

#783
1aaaaa

#784
0aaaaa

#785
1aaaaa

#786
0aaaaa

#787
1aaaaa

#788
0aaaaa

#789
1aaaaa

#790
0aaaaa

#791
1aaaaa

#792
0aaaaa

#793
1aaaaa

#794
0aaaaa

#795
1aaaaa

#796
0aaaaa

#797
1aaaaa

#798
0aaaaa

#799
1aaaaa

#800
0aaaaa
1aaaab
0aaaac
0aaaad
0aaaae
1aaaaf
1aaaag

